[gd_scene load_steps=3 format=2]

[ext_resource path="res://addons/vr-common/functions/Function_Direct_movement.gd" type="Script" id=1]

[sub_resource type="CapsuleShape" id=1]

radius = 0.3
height = 1.2

[node name="Function_Direct_movement" type="Spatial"]

script = ExtResource( 1 )
origin = null
camera = null
controller = null
player_height = 1.8
player_radius = 0.4
turn_delay = 0.2
turn_angle = 20.0
max_speed = 500.0
drag_factor = 0.1

[node name="KinematicBody" type="KinematicBody" parent="." index="0"]

input_ray_pickable = true
input_capture_on_drag = false
collision_layer = 524289
collision_mask = 2
axis_lock_linear_x = false
axis_lock_linear_y = false
axis_lock_linear_z = false
axis_lock_angular_x = false
axis_lock_angular_y = false
axis_lock_angular_z = false
collision/safe_margin = 0.001
_sections_unfolded = [ "Collision", "Transform" ]

[node name="CollisionShape" type="CollisionShape" parent="KinematicBody" index="0"]

transform = Transform( 1, 0, 0, 0, -4.37114e-008, -1, 0, 1, -4.37114e-008, 0, 0.9, 0 )
shape = SubResource( 1 )
disabled = false
_sections_unfolded = [ "Transform" ]

[node name="Tail" type="RayCast" parent="KinematicBody" index="1"]

transform = Transform( 1, 0, 0, 0, 1, 0, 0, 0, 1, 0, 0.5, 0 )
enabled = true
exclude_parent = true
cast_to = Vector3( 0, -0.6, 0 )
collision_mask = 2
_sections_unfolded = [ "Transform" ]


