; Engine configuration file.
; It's best edited using the editor UI and not directly,
; since the parameters that go here are not all obvious.
;
; Format:
;   [section] ; section goes between []
;   param=value ; assign values to parameters

config_version=3

[application]

config/name="TestVRUnique"
run/main_scene="res://Spatial.tscn"
config/icon="res://icon.png"

[editor_plugins]

enabled=PoolStringArray( "gdosc" )

[gdnative]

singletons=[ "res://addons/godot-openvr/godot_openvr.gdnlib" ]

[rendering]

environment/default_environment="res://default_env.tres"
