[gd_scene load_steps=7 format=2]

[ext_resource path="res://addons/gdosc/main.gd" type="Script" id=1]
[ext_resource path="res://addons/VR/VR.tscn" type="PackedScene" id=2]
[ext_resource path="res://addons/VR/Env.tscn" type="PackedScene" id=3]
[ext_resource path="res://addons/VR/scripts/MovableObjects.gd" type="Script" id=4]
[ext_resource path="res://addons/gdosc/Menu.tscn" type="PackedScene" id=5]
[ext_resource path="res://addons/VR/SelectedObject.tscn" type="PackedScene" id=6]

[node name="Spatial" type="Spatial"]

script = ExtResource( 1 )
movableObjectsNode = NodePath("MovableObjects")

[node name="ARVROrigin" parent="." index="0" instance=ExtResource( 2 )]

transform = Transform( 1, 0, 0, 0, 1, 0, 0, 0, 1, 2.90182, 0.963346, 5.94108 )
_sections_unfolded = [ "Transform" ]

[node name="Env" parent="." index="1" instance=ExtResource( 3 )]

[node name="MovableObjects" type="Spatial" parent="." index="2"]

script = ExtResource( 4 )

[node name="Menu" parent="." index="3" instance=ExtResource( 5 )]

[node name="SelectedObject" parent="." index="4" instance=ExtResource( 6 )]

object_moving = Color( 1, 1, 0, 1 )
object_selected = Color( 1, 0.5, 0, 1 )


