[gd_scene load_steps=2 format=2]

[ext_resource path="res://addons/VR/VR.tscn" type="PackedScene" id=1]

[node name="Spatial" type="Spatial"]

[node name="ARVROrigin" parent="." index="0" instance=ExtResource( 1 )]


