[gd_scene load_steps=2 format=2]

[ext_resource path="res://addons/vr-common/objects/Object_pickable.gd" type="Script" id=1]

[node name="PickableObject" type="RigidBody"]

input_ray_pickable = true
input_capture_on_drag = false
collision_layer = 6
collision_mask = 6
mode = 0
mass = 1.0
friction = 1.0
bounce = 0.0
gravity_scale = 1.0
custom_integrator = false
continuous_cd = false
contacts_reported = 0
contact_monitor = false
sleeping = false
can_sleep = true
axis_lock_linear_x = false
axis_lock_linear_y = false
axis_lock_linear_z = false
axis_lock_angular_x = false
axis_lock_angular_y = false
axis_lock_angular_z = false
linear_velocity = Vector3( 0, 0, 0 )
linear_damp = -1.0
angular_velocity = Vector3( 0, 0, 0 )
angular_damp = -1.0
script = ExtResource( 1 )

[node name="CollisionShape" type="CollisionShape" parent="." index="0"]

shape = null
disabled = false


