[gd_scene load_steps=3 format=2]

[ext_resource path="res://addons/Main.tscn" type="PackedScene" id=1]
[ext_resource path="res://Cube.tscn" type="PackedScene" id=2]

[node name="Spatial" index="0" instance=ExtResource( 1 )]

[node name="Cube" parent="MovableObjects" index="0" instance=ExtResource( 2 )]

transform = Transform( 1, 0, 0, 0, 1, 0, 0, 0, 1, 17, 4, 16 )


